…
## The following objects are masked from 'package:lubridate':
## 
##     interval, new_interval

## The following object is masked from 'package:stats':
## 
##     filter

library(lubridate)

aapl_prices  <- tq_get("AAPL", get = "stock.prices", from = " 1990-01-01")
aapl_prices

## # A tibble: 7,368 x 7
##    date        open  high   low close   volume adjusted
##    <date>     <dbl> <dbl> <dbl> <dbl>    <dbl>    <dbl>
##  1 1990-01-02  1.26  1.34  1.25  1.33 45799600    0.122
##  2 1990-01-03  1.36  1.36  1.34  1.34 51998800    0.123
##  3 1990-01-04  1.37  1.38  1.33  1.34 55378400    0.123
##  4 1990-01-05  1.35  1.37  1.32  1.35 30828000    0.124
##  5 1990-01-08  1.34  1.36  1.32  1.36 25393200    0.124
##  6 1990-01-09  1.36  1.36  1.32  1.34 21534800    0.123
##  7 1990-01-10  1.34  1.34  1.28  1.29 49929600    0.118
##  8 1990-01-11  1.29  1.29  1.23  1.23 52763200    0.113
##  9 1990-01-12  1.22  1.24  1.21  1.23 42974400    0.113
## 10 1990-01-15  1.23  1.28  1.22  1.22 40434800    0.112
## # ... with 7,358 more rows

In tidyquant:

aapl_prices %>% select(date, close) %>% 
  tq_transmute(mutate_fun = to.period, 
                             period = "months",
                             col_rename = "mon_price") %>% 
  mutate(date_ = yearmonth(date))

## # A tibble: 351 x 3
##    date       mon_price     date_
##    <date>         <dbl>     <mth>
##  1 1990-01-31      1.21  1990 1月
##  2 1990-02-28      1.21  1990 2月
##  3 1990-03-30      1.44  1990 3月
##  4 1990-04-30      1.41  1990 4月
##  5 1990-05-31      1.47  1990 5月
##  6 1990-06-29      1.60  1990 6月
##  7 1990-07-31      1.5   1990 7月
##  8 1990-08-31      1.32  1990 8月
##  9 1990-09-28      1.04  1990 9月
## 10 1990-10-31      1.10 1990 10月
## # ... with 341 more rows

In tsibble:

aapl_prices %>% select(date, close) %>% 
  as_tsibble(index= date) %>% 
  index_by(month = yearmonth(date)) %>% 
  summarise(
    temp_high = mean(close, na.rm = TRUE)
  )

## # A tsibble: 351 x 2 [1M]
##        month temp_high
##        <mth>     <dbl>
##  1  1990 1月      1.25
##  2  1990 2月      1.21
##  3  1990 3月      1.38
##  4  1990 4月      1.46
##  5  1990 5月      1.47
##  6  1990 6月      1.44
##  7  1990 7月      1.57
##  8  1990 8月      1.37
##  9  1990 9月      1.18
## 10 1990 10月      1.03
## # ... with 341 more rows
…
